%!PS-Adobe-3.0 EPSF-3.0
%%Creator: cairo 1.15.12 (http://cairographics.org)
%%CreationDate: Fri Nov 17 09:26:14 2023
%%Pages: 1
%%DocumentData: Clean7Bit
%%LanguageLevel: 2
%%BoundingBox: 0 0 656 373
%%EndComments
%%BeginProlog
50 dict begin
/q { gsave } bind def
/Q { grestore } bind def
/cm { 6 array astore concat } bind def
/w { setlinewidth } bind def
/J { setlinecap } bind def
/j { setlinejoin } bind def
/M { setmiterlimit } bind def
/d { setdash } bind def
/m { moveto } bind def
/l { lineto } bind def
/c { curveto } bind def
/h { closepath } bind def
/re { exch dup neg 3 1 roll 5 3 roll moveto 0 rlineto
      0 exch rlineto 0 rlineto closepath } bind def
/S { stroke } bind def
/f { fill } bind def
/f* { eofill } bind def
/n { newpath } bind def
/W { clip } bind def
/W* { eoclip } bind def
/BT { } bind def
/ET { } bind def
/BDC { mark 3 1 roll /BDC pdfmark } bind def
/EMC { mark /EMC pdfmark } bind def
/cairo_store_point { /cairo_point_y exch def /cairo_point_x exch def } def
/Tj { show currentpoint cairo_store_point } bind def
/TJ {
  {
    dup
    type /stringtype eq
    { show } { -0.001 mul 0 cairo_font_matrix dtransform rmoveto } ifelse
  } forall
  currentpoint cairo_store_point
} bind def
/cairo_selectfont { cairo_font_matrix aload pop pop pop 0 0 6 array astore
    cairo_font exch selectfont cairo_point_x cairo_point_y moveto } bind def
/Tf { pop /cairo_font exch def /cairo_font_matrix where
      { pop cairo_selectfont } if } bind def
/Td { matrix translate cairo_font_matrix matrix concatmatrix dup
      /cairo_font_matrix exch def dup 4 get exch 5 get cairo_store_point
      /cairo_font where { pop cairo_selectfont } if } bind def
/Tm { 2 copy 8 2 roll 6 array astore /cairo_font_matrix exch def
      cairo_store_point /cairo_font where { pop cairo_selectfont } if } bind def
/g { setgray } bind def
/rg { setrgbcolor } bind def
/d1 { setcachedevice } bind def
/cairo_data_source {
  CairoDataIndex CairoData length lt
    { CairoData CairoDataIndex get /CairoDataIndex CairoDataIndex 1 add def }
    { () } ifelse
} def
/cairo_flush_ascii85_file { cairo_ascii85_file status { cairo_ascii85_file flushfile } if } def
/cairo_image { image cairo_flush_ascii85_file } def
/cairo_imagemask { imagemask cairo_flush_ascii85_file } def
%%EndProlog
%%BeginSetup
%%EndSetup
%%Page: 1 1
%%BeginPageSetup
%%PageBoundingBox: 0 0 656 373
%%EndPageSetup
q 0 0 656 373 rectclip
1 0 0 -1 0 373 cm q
0 g
0 1.293 m 0 1.793 147.199 1.895 327 1.492 c 654 0.691 l 653.801 186.895
 l 653.602 289.191 653.801 372.992 654.301 372.992 c 654.898 372.992 655.699
 11.293 655.102 1.691 c 655 -0.105 644.699 -0.207 327.5 0.191 c 147.398 
0.293 0 0.895 0 1.293 c h
0 1.293 m f
375.5 43.793 m 374.898 44.191 374.5 49.594 374.5 56.191 c 374.5 68.191 
375 69.691 378.5 68.395 c 379.699 67.895 380 65.492 380 55.395 c 380 44.293
 379.801 42.992 378.301 42.992 c 377.301 42.992 376.102 43.395 375.5 43.793
 c h
375.5 43.793 m f
423.699 43.594 m 423.301 43.992 423 45.793 423 47.691 c 423 50.793 422.801
 50.992 420.5 50.395 c 413.602 48.691 408.301 55.992 411.301 63.191 c 413.199
 67.793 415.102 68.691 422.5 68.594 c 428.5 68.492 l 428.5 55.992 l 428.5
 44.191 428.398 43.492 426.5 43.191 c 425.301 42.992 424.102 43.191 423.699
 43.594 c h
422.801 59.793 m 422.5 62.992 422.199 63.492 420 63.492 c 417.801 63.492
 417.5 62.992 417.199 59.594 c 416.801 55.191 418.301 53.594 421.301 55.094
 c 422.699 55.895 423 56.992 422.801 59.793 c h
422.801 59.793 m f
150.898 50.492 m 150.898 54.094 150.801 58.793 150.801 60.992 c 150.801
 69.293 150.801 69.191 153.801 68.793 c 156.199 68.492 156.5 68.094 156.5
 64.492 c 156.5 60.492 l 161.699 59.992 l 167.801 59.395 169.801 57.691 
170.699 52.793 c 171.102 49.793 170.801 48.691 168.699 46.594 c 166.398 
44.293 165.301 43.992 158.5 43.992 c 151 43.992 l h
164.5 51.992 m 164.5 53.992 163.898 54.594 161.699 54.793 c 157.398 55.293
 156.199 54.492 156.801 51.492 c 157.199 49.191 157.699 48.895 160.898 49.191
 c 164 49.492 164.5 49.793 164.5 51.992 c h
164.5 51.992 m f
213.199 46.191 m 213.602 49.293 218.5 49.594 218.5 46.492 c 218.5 44.992
 217.699 44.395 215.699 44.191 c 213.199 43.895 212.898 44.191 213.199 46.191
 c h
213.199 46.191 m f
233.898 44.191 m 233.301 46.293 233.398 47.992 234.102 48.094 c 237.699
 48.594 238.5 48.293 238.801 46.191 c 239.102 44.395 238.699 43.992 236.602
 43.992 c 235.199 43.992 234 44.094 233.898 44.191 c h
233.898 44.191 m f
294 45.992 m 294 47.492 294.699 47.992 296.5 47.992 c 298.301 47.992 299
 47.492 299 45.992 c 299 44.492 298.301 43.992 296.5 43.992 c 294.699 43.992
 294 44.492 294 45.992 c h
294 45.992 m f
324 45.992 m 324 47.594 324.699 47.992 327 47.992 c 329.301 47.992 330 
47.594 330 45.992 c 330 44.395 329.301 43.992 327 43.992 c 324.699 43.992
 324 44.395 324 45.992 c h
324 45.992 m f
345.699 44.691 m 343.801 46.492 345.102 48.094 348.199 47.793 c 352.602
 47.395 353.5 43.992 349.199 43.992 c 347.602 43.992 346 44.293 345.699 
44.691 c h
345.699 44.691 m f
225.301 45.691 m 224.602 45.895 223.301 47.691 222.398 49.594 c 221.102
 52.395 221 53.594 221.801 55.293 c 222.5 56.492 223.102 59.691 223.199 
62.492 c 223.5 66.594 223.898 67.691 225.898 68.691 c 227.602 69.492 229
 69.594 230.199 68.895 c 232.602 67.594 232.5 65.395 230 64.691 c 228.398
 64.293 228 63.293 228 60.094 c 228 57.094 228.5 55.793 230 54.992 c 232.602
 53.594 232.602 50.992 230 50.293 c 228.5 49.895 228.199 49.191 228.602 
47.395 c 229.199 44.992 228.199 44.492 225.301 45.691 c h
225.301 45.691 m f
335.5 46.992 m 334.5 48.094 334.102 48.992 334.602 48.992 c 335.102 48.992
 334.699 49.492 333.801 50.094 c 331.602 51.293 331.5 53.293 333.5 54.992
 c 334.5 55.793 335 58.094 335 62.094 c 335 67.492 335.199 67.992 337.398
 68.594 c 341.199 69.492 343.5 68.691 343.801 66.191 c 344.102 64.395 343.699
 63.895 342.301 64.191 c 340.801 64.395 340.398 63.691 340.199 59.691 c 
340 55.992 340.199 54.992 341.398 54.992 c 342.398 54.992 343 54.094 343
 52.492 c 343 50.895 342.398 49.992 341.5 49.992 c 340.602 49.992 340 49.094
 340 47.492 c 340 44.492 338 44.191 335.5 46.992 c h
335.5 46.992 m f
387.301 50.992 m 381.398 54.492 380.699 61.793 385.602 66.691 c 387.801
 68.895 388.699 69.094 392.199 68.594 c 398.199 67.594 401.699 62.094 395.898
 62.793 c 390 63.492 388.699 63.395 388.301 62.191 c 388 61.293 389.398 
60.992 393.398 60.992 c 399 60.992 l 399 57.691 l 398.898 51.293 392.699
 47.691 387.301 50.992 c h
394 56.992 m 394 57.594 392.699 57.992 391 57.992 c 387.801 57.992 387.301
 57.094 389.199 55.191 c 390.398 53.992 394 55.293 394 56.992 c h
394 56.992 m f
455 50.793 m 451.301 52.594 449.898 55.992 451.898 58.395 c 452.5 59.094
 454.898 60.293 457.199 60.992 c 463.102 62.895 464.102 63.992 459.699 63.992
 c 457.699 63.992 456 63.492 456 62.992 c 456 62.395 454.898 61.992 453.5
 61.992 c 450.602 61.992 450.199 64.293 452.699 66.793 c 454.801 68.895 
463.898 69.094 466.301 67.094 c 468.301 65.492 468.5 60.691 466.801 59.191
 c 466.102 58.691 463.301 57.594 460.5 56.793 c 456.5 55.594 455.898 55.094
 457.398 54.492 c 458.5 53.992 460 54.191 461.102 54.793 c 463.602 56.395
 468.301 56.395 467.801 54.793 c 467.301 53.293 463.102 50.293 460.5 49.594
 c 459.398 49.293 456.898 49.793 455 50.793 c h
455 50.793 m f
178.301 50.992 m 175.801 51.992 173 56.793 173 59.992 c 173 62.895 175.602
 67.594 177.5 68.395 c 180.102 69.293 184.898 69.094 187.199 67.895 c 188.301
 67.293 189.801 65.293 190.602 63.293 c 192 60.094 191.898 59.492 190 55.395
 c 188.699 52.793 187.102 50.992 186.199 50.992 c 185.199 50.992 183.602
 50.793 182.5 50.492 c 181.398 50.293 179.5 50.492 178.301 50.992 c h
185 56.895 m 186.398 59.594 186.301 61.594 184.398 63.395 c 182.199 65.691
 180.5 65.395 179 62.492 c 178 60.594 177.898 59.492 178.801 57.492 c 180.199
 54.492 183.5 54.191 185 56.895 c h
185 56.895 m f
233.801 55.691 m 233.699 58.895 233.602 63.191 233.801 65.191 c 234.102
 68.492 234.5 68.992 236.602 68.992 c 239.102 68.992 l 238.801 59.691 l 
238.5 51.094 238.398 50.492 236.301 50.191 c 234.398 49.895 234.199 50.395
 233.801 55.691 c h
233.801 55.691 m f
247.398 50.992 m 244.301 52.191 242 55.895 242 59.793 c 242 64.395 243.5
 66.793 247.602 68.492 c 250.602 69.691 251.602 69.793 254.301 68.594 c 
258.199 66.992 259.602 65.395 260.199 61.691 c 261 57.395 259 53.191 255.398
 51.492 c 251.801 49.793 250.5 49.691 247.398 50.992 c h
253.398 55.594 m 256.898 56.895 254.301 64.992 250.398 64.992 c 248 64.992
 246.5 60.395 247.801 57.492 c 249 54.992 250.5 54.492 253.398 55.594 c 
h
253.398 55.594 m f
264 59.492 m 264 68.895 264 68.992 266.5 68.992 c 268.801 68.992 268.898
 68.594 269.199 62.895 c 269.398 58.395 270 56.395 271.199 55.594 c 273.602
 54.191 273.801 54.594 274.301 61.992 c 274.699 68.094 274.898 68.492 277.398
 68.793 c 280 69.094 l 280 61.094 l 280 53.492 279.801 52.895 277.398 51.293
 c 275.301 49.992 274.199 49.793 271.898 50.691 c 270.199 51.395 268.801
 51.395 268.398 50.895 c 268.102 50.395 267 49.992 265.898 49.992 c 264.199
 49.992 264 50.793 264 59.492 c h
264 59.492 m f
294.699 50.594 m 294.301 50.992 294 55.293 294 60.191 c 294 68.992 294 
68.992 296.5 68.992 c 299.102 68.992 l 298.801 59.793 l 298.602 52.395 298.199
 50.492 297 50.191 c 296.102 50.094 295.102 50.191 294.699 50.594 c h
294.699 50.594 m f
303.699 51.691 m 303.398 52.691 303.301 54.992 303.398 56.691 c 303.5 58.492
 303.699 62.094 303.801 64.594 c 304 68.691 304.199 69.094 306.301 68.793
 c 308.301 68.492 308.602 67.793 309 61.992 c 309.398 56.691 309.801 55.492
 311.398 55.191 c 314.102 54.691 315 56.691 315 63.191 c 315 68.691 315.102
 68.992 317.5 68.992 c 319.898 68.992 320 68.793 320 61.691 c 320 51.492
 316.898 47.793 311 50.992 c 309.699 51.691 308.898 51.691 308.5 50.992 
c 307.5 49.395 304.199 49.895 303.699 51.691 c h
303.699 51.691 m f
325.699 50.691 m 324.102 51.094 324 52.191 324.199 59.793 c 324.5 67.992
 324.602 68.492 326.801 68.793 c 328.898 69.094 329 68.793 329.199 61.594
 c 329.301 57.395 329.398 53.191 329.398 52.293 c 329.5 50.492 328.398 49.992
 325.699 50.691 c h
325.699 50.691 m f
345.5 52.293 m 345.199 53.492 345 57.691 345.199 61.492 c 345.5 68.293 
345.602 68.492 348.301 68.793 c 350.301 69.094 351 68.691 351.102 67.293
 c 351.699 49.793 351.801 49.992 348.398 49.992 c 346.801 49.992 345.898
 50.691 345.5 52.293 c h
345.5 52.293 m f
357.199 51.594 m 356 52.395 355 53.793 355 54.594 c 355 56.293 359.102 
56.492 360.801 54.793 c 361.801 53.793 362.398 53.895 363.602 55.191 c 365
 56.594 364.898 56.793 361.5 57.395 c 355.5 58.594 352.5 62.992 355 66.992
 c 355.602 68.094 357.898 68.492 363.199 68.594 c 370.5 68.691 l 370.199
 61.094 l 369.898 54.992 369.5 53.191 367.801 51.691 c 365.301 49.594 360.199
 49.492 357.199 51.594 c h
363.301 63.492 m 361.5 64.793 360 64.594 360 62.992 c 360 61.992 363.102
 61.094 364.301 61.793 c 364.801 61.992 364.301 62.793 363.301 63.492 c 
h
363.301 63.492 m f
434.5 52.492 m 430.898 56.191 431 62.895 434.699 66.594 c 436.898 68.793
 437.898 69.094 441.199 68.691 c 445.5 68.094 448 66.492 448 64.293 c 448
 62.191 445.199 61.594 442.398 63.094 c 440.301 64.191 439.699 64.094 438.301
 62.691 c 436.699 61.094 437 60.992 442.801 60.992 c 449 60.992 l 449 57.992
 l 449 50.793 439.699 47.293 434.5 52.492 c h
441.398 54.594 m 443.898 55.594 443.301 57.992 440.5 57.992 c 438.102 57.992
 437.102 56.191 438.699 54.691 c 439.5 53.895 439.5 53.895 441.398 54.594
 c h
441.398 54.594 m f
481.699 51.895 m 481.5 52.895 481.301 57.094 481.398 61.094 c 481.5 68.293
 481.602 68.492 484 68.492 c 486.301 68.492 486.5 68.094 487 62.492 c 487.398
 57.191 487.801 56.492 490 55.992 c 491.801 55.594 492.5 54.793 492.5 52.992
 c 492.5 50.691 492.102 50.492 487.398 50.293 c 483.102 50.094 482.102 50.293
 481.699 51.895 c h
481.699 51.895 m f
496.5 52.594 m 493.699 55.594 493.102 62.191 495.301 65.094 c 500.102 71.293
 510 68.992 512.5 61.094 c 513.398 58.293 510.199 51.992 507.398 50.992 
c 502.898 49.191 499.102 49.793 496.5 52.594 c h
505.5 55.594 m 508.898 59.094 505.199 65.895 501.301 63.395 c 497.898 61.293
 498.898 53.992 502.602 53.992 c 503.301 53.992 504.602 54.691 505.5 55.594
 c h
505.5 55.594 m f
515.398 51.492 m 515 52.395 515 55.895 515.398 59.293 c 516.102 66.492 
518.602 69.594 523 68.492 c 524.398 68.191 527.102 67.793 529 67.691 c 532.5
 67.492 l 532.5 50.492 l 529.801 50.191 l 527 49.895 527 49.895 527 56.293
 c 527 61.293 526.602 62.895 525.398 63.395 c 522.398 64.492 522.102 63.992
 521.801 57.191 c 521.5 50.691 521.398 50.492 518.699 50.191 c 516.898 49.992
 515.801 50.395 515.398 51.492 c h
515.398 51.492 m f
539.699 50.691 m 537.5 51.293 535 56.094 535 59.895 c 535 61.594 536 64.094
 537.301 65.594 c 541.199 70.094 551 68.793 551 63.793 c 551 62.191 547.801
 61.691 545.398 63.094 c 543.301 64.191 542.699 64.094 541.199 62.594 c 
539.602 60.895 539.801 60.895 545.398 61.094 c 551.801 61.395 552.699 60.793
 551.602 56.492 c 550.301 51.395 545.699 49.094 539.699 50.691 c h
544.398 54.594 m 546.898 55.492 546.301 56.992 543.5 56.992 c 541.102 56.992
 540.301 55.992 541.699 54.691 c 542.5 53.895 542.5 53.895 544.398 54.594
 c h
544.398 54.594 m f
556.199 51.094 m 554.301 51.793 553.898 52.594 554.199 55.691 c 554.5 59.191
 554.801 59.492 559.199 60.992 c 561.898 61.793 564 62.793 564 63.191 c 
564 64.395 560.199 64.094 558.102 62.793 c 557.102 62.191 555.5 61.992 554.602
 62.293 c 553.199 62.793 553.102 63.395 554 64.992 c 556.398 69.492 565.5
 69.992 568.5 65.691 c 570.5 62.793 570.398 61.293 568 59.293 c 565.602 
57.191 565.398 55.992 567.5 55.992 c 569.602 55.992 569.398 54.395 567 51.992
 c 564.898 49.895 560.199 49.492 556.199 51.094 c h
562.898 54.895 m 563.699 55.395 563.801 55.992 563.199 56.395 c 561.898
 57.191 559 56.094 559 54.895 c 559 53.793 561.102 53.793 562.898 54.895
 c h
562.898 54.895 m f
194.602 52.895 m 191.602 56.191 192.898 59.293 198 60.992 c 200.5 61.793
 202.699 62.895 202.898 63.492 c 203.602 65.094 200.398 65.191 198.801 63.594
 c 197 61.895 193 62.594 193 64.594 c 193 66.594 197.301 68.992 201.102 
69.191 c 205.699 69.293 208.801 67.492 209.602 64.293 c 210.199 62.191 209.801
 61.191 207.602 59.492 c 204.898 57.395 204.898 57.293 206.898 56.691 c 
208.102 56.395 209 55.691 209 55.191 c 209 50.992 197.898 49.191 194.602
 52.895 c h
203.5 55.992 m 203.898 56.594 203 56.992 201.602 56.992 c 200.199 56.992
 199 56.492 199 55.992 c 199 55.395 199.898 54.992 200.898 54.992 c 202 
54.992 203.199 55.395 203.5 55.992 c h
203.5 55.992 m f
213 59.895 m 213 68.992 l 219.102 68.992 l 218.801 60.191 l 218.5 51.492
 218.5 51.492 215.801 51.191 c 213 50.895 l h
213 59.895 m f
249.102 96.395 m 248.398 97.293 247.398 100.895 247 104.594 c 246.102 112.094
 245.602 112.793 240.301 114.691 c 234.5 116.691 233.602 116.395 226.102
 110.895 c 222.199 108.094 218.699 105.992 218.301 106.191 c 217.898 106.293
 214.898 108.293 211.801 110.395 c 207.5 113.191 206 114.895 206 116.594
 c 206 117.793 206.5 119.191 207 119.492 c 207.602 119.793 208 121.094 208
 122.395 c 208 123.594 208.5 125.094 209.102 125.691 c 211.398 127.992 210.398
 132.992 206.898 136.594 c 203.5 139.992 l 196 138.992 l 191.898 138.395
 187.602 137.895 186.5 137.691 c 184.898 137.594 183.801 138.895 181.301
 143.992 c 179.5 147.492 178 150.992 178 151.594 c 178 152.191 179.602 153.793
 181.5 155.094 c 183.398 156.395 185 157.793 185 158.191 c 185 158.492 186.602
 159.691 188.5 160.895 c 192.301 163.094 192.5 163.691 191 168.992 c 189.5
 174.293 188.898 174.793 180.898 177.594 c 176.898 178.992 173.199 180.691
 172.699 181.293 c 171.5 183.191 173 195.395 174.699 196.691 c 175.5 197.293
 178.898 198.094 182.301 198.492 c 191.199 199.594 192.5 200.293 193.801
 204.793 c 195.602 210.691 195.398 211.395 190 217.594 c 187.301 220.691
 185 223.793 185 224.492 c 185 225.992 189.898 232.793 192.801 235.293 c
 194.801 237.094 195.102 237.094 203.5 234.492 c 212.199 231.793 212.199
 231.793 214.801 233.691 c 219.898 237.492 221 239.992 219.898 245.492 c
 217.5 257.395 217 256.094 225.102 259.793 c 229.102 261.594 233 262.793
 233.898 262.492 c 234.801 262.191 237.699 259.191 240.5 255.793 c 245.5
 249.793 l 250.801 250.293 l 253.801 250.594 257 251.594 257.898 252.395
 c 258.801 253.191 260.602 256.793 262 260.395 c 263.5 264.492 265 266.992
 266 267.094 c 272.5 267.395 280.699 266.691 281.801 265.594 c 282.5 264.895
 283.301 261.895 283.699 258.895 c 284.398 252.691 286.699 247.992 289.102
 247.992 c 290 247.992 292.301 247.293 294.301 246.492 c 297.5 245.191 297.898
 245.191 300.102 247.094 c 310.602 255.895 313.898 257.594 315.5 254.992
 c 315.898 254.395 318.301 252.895 321 251.492 c 323.699 250.094 326.102
 248.594 326.398 248.094 c 326.699 247.594 325.602 243.395 323.898 238.691
 c 320.801 230.191 l 324.5 226.395 l 327.801 222.992 328.699 222.691 332.801
 222.793 c 335.398 222.895 339.602 223.492 342.301 224.094 c 345.801 224.895
 347.398 224.895 348.398 224.094 c 350 222.691 355 212.594 355 210.594 c
 355 208.992 349.699 204.293 345.102 201.793 c 342.199 200.191 342 199.691
 342 194.594 c 342 187.992 342.898 187.191 353.602 183.895 c 361 181.594
 l 361 174.293 l 361 167.293 360.898 166.992 358 165.492 c 356.398 164.691
 353.602 163.992 351.801 163.992 c 345.398 163.992 341.199 162.191 339.602
 158.691 c 336.699 152.094 336.801 151.492 343.102 144.395 c 348 138.793
 348.801 137.492 347.898 135.793 c 347.301 134.793 346.199 133.594 345.398
 133.293 c 344.602 132.992 344 132.293 344 131.691 c 344 131.094 342.801
 129.293 341.301 127.793 c 338.602 124.992 335.602 124.191 334.5 125.992
 c 334.199 126.492 332.898 126.992 331.602 126.992 c 330.398 126.992 329
 127.395 328.398 127.895 c 327.199 129.191 319.199 130.992 318.801 130.094
 c 318.602 129.691 316.801 128.191 314.801 126.594 c 311.199 123.895 311.102
 123.691 311.699 118.691 c 312 115.793 312.5 112.094 312.898 110.492 c 313.699
 107.191 313.301 104.992 311.898 104.992 c 311.5 104.992 308.602 103.895
 305.602 102.492 c 302.602 101.094 299.5 99.992 298.699 99.992 c 297.898
 99.992 294.801 102.691 291.699 105.992 c 286.301 111.895 286.199 111.992
 280.801 111.992 c 277.801 111.992 274.699 111.395 273.801 110.691 c 272.898
 110.094 271.102 106.293 269.699 102.492 c 267.199 95.492 l 258.801 95.191
 l 252.199 94.992 250 95.293 249.102 96.395 c h
280.199 128.395 m 289.801 130.992 297.398 134.293 302 137.895 c 309.699
 144.094 315.699 150.691 318.5 156.191 c 319.898 159.094 321.5 162.191 321.898
 162.992 c 326.199 170.793 326.102 191.395 321.898 198.992 c 321.5 199.793
 319.898 202.793 318.5 205.594 c 312.898 216.691 300.102 226.793 284.398
 232.492 c 278.398 234.691 275.898 234.992 264.801 234.992 c 257.398 234.992
 251.898 234.594 251.5 233.992 c 251.199 233.395 249.898 232.992 248.801
 232.992 c 247.602 232.992 242.898 231.191 238.301 228.992 c 229 224.492
 218.699 215.594 215.5 209.293 c 214.5 207.191 213 204.793 212.301 203.895
 c 211.602 203.094 210.102 199.691 209 196.395 c 206.102 187.594 206.301
 175.992 209.602 166.191 c 212.301 158.191 215.5 152.094 217.699 150.691
 c 218.398 150.293 219 149.293 219 148.594 c 219 147.191 227.699 139.395
 233.5 135.793 c 235.699 134.395 240.199 132.395 243.5 131.293 c 246.801
 130.191 250.898 128.793 252.5 128.191 c 257 126.691 274.199 126.793 280.199
 128.395 c h
345.699 208.691 m 350.398 215.094 341 222.191 334.199 217.395 c 331 215.191
 331.398 209.094 335 207.191 c 338.102 205.594 344.102 206.395 345.699 208.691
 c h
345.699 208.691 m f
260 156.691 m 253.199 159.191 247.699 162.395 245.398 165.395 c 242 169.594
 239.102 176.492 239.102 180.395 c 238.898 188.094 244.199 197.992 250 201.094
 c 261.699 207.191 267.602 207.594 277.5 202.895 c 287.898 197.992 293.801
 188.191 292.398 177.992 c 291.699 173.191 288.301 166.395 285.301 163.992
 c 284.301 163.191 282.699 161.895 281.801 161.191 c 277.199 157.492 264.801
 154.992 260 156.691 c h
260 156.691 m f
50 109.594 m 50 122.094 l 52.801 121.793 l 55 121.594 55.5 120.992 55.602
 118.492 c 55.801 112.395 56 111.992 58 111.992 c 59.301 111.992 61.102 
113.793 63.199 116.992 c 66 121.293 67 121.992 69.801 121.992 c 73.102 121.992
 l 66.102 110.992 l 68.5 108.594 l 71.5 105.594 71.699 102.094 69 99.191
 c 67.199 97.293 65.898 96.992 58.5 96.992 c 50 96.992 l h
64.398 102.594 m 65.398 105.191 63.102 106.992 58.801 106.992 c 55.5 106.992
 54.898 106.691 55.398 105.395 c 55.699 104.492 56 103.191 56 102.395 c 
56 100.293 63.602 100.492 64.398 102.594 c h
64.398 102.594 m f
145.801 102.492 m 145.699 105.492 145.602 110.992 145.602 114.691 c 145.5
 121.492 l 152 121.793 l 159.898 122.191 162.398 121.594 165 118.793 c 167.398
 116.191 167.602 113.191 165.5 110.293 c 164.398 108.691 164.199 107.492
 165 105.492 c 165.699 103.594 165.699 102.094 164.699 100.191 c 163.5 97.594
 163.102 97.492 154.699 97.191 c 146 96.895 l h
159.898 102.395 m 160.898 103.492 160.602 104.094 158.801 105.395 c 154.602
 108.293 148.898 106.395 150.398 102.492 c 151.102 100.594 158.301 100.492
 159.898 102.395 c h
160.801 114.191 m 160.5 116.191 159.898 116.492 155.5 116.492 c 151.102
 116.492 150.5 116.191 150.199 114.191 c 149.898 112.094 150.199 111.992
 155.5 111.992 c 160.801 111.992 161.102 112.094 160.801 114.191 c h
160.801 114.191 m f
76.5 105.691 m 74.102 108.191 73.801 108.992 74.301 113.395 c 74.898 119.895
 79.301 123.094 85.301 121.594 c 90 120.492 92 117.691 92 112.191 c 92 107.895
 91.602 106.793 89.398 105.094 c 85.5 101.992 80 102.293 76.5 105.691 c 
h
86.602 110.191 m 86.898 111.293 86.898 113.293 86.602 114.594 c 86 116.691
 85.398 117.094 82.699 116.793 c 80.102 116.594 79.5 115.992 79.301 113.992
 c 79.102 110.293 79.898 108.191 81.801 107.691 c 84.301 107.191 85.801 
107.992 86.602 110.191 c h
86.602 110.191 m f
96 110.293 m 96 118.793 97.602 121.992 101.898 121.992 c 103.398 121.992
 105.102 121.492 105.699 120.895 c 106.5 120.094 107 120.094 107.398 120.895
 c 107.801 121.492 109 121.992 110.102 121.992 c 111.801 121.992 112 121.191
 112 112.395 c 112 103.094 111.898 102.895 109.801 103.191 c 107.699 103.492
 107.398 104.191 107 109.992 c 106.602 115.691 106.199 116.492 104.398 116.793
 c 102 117.094 101 114.094 101 106.895 c 101 103.395 100.699 102.992 98.5
 102.992 c 96.102 102.992 96 103.191 96 110.293 c h
96 110.293 m f
118.602 105.094 m 116.398 106.793 116 107.895 116 112.395 c 116 119.094
 118.602 121.992 124.699 121.992 c 128.102 121.992 129.199 121.492 130.898
 119.094 c 133 116.191 l 130.199 115.691 l 128.699 115.395 127.102 115.594
 126.5 116.094 c 125 117.594 121 117.191 121 115.492 c 121 114.293 122.301
 113.992 127 113.992 c 132.301 113.992 133 113.793 133 111.992 c 133 104.492
 124.602 100.395 118.602 105.094 c h
125.801 108.191 m 127.699 110.094 127.199 110.992 124 110.992 c 122.398
 110.992 121 110.594 121 110.191 c 121 109.293 123.102 106.992 124 106.992
 c 124.301 106.992 125.102 107.492 125.801 108.191 c h
125.801 108.191 m f
416.398 174.594 m 415.801 176.594 412.5 184.895 410.602 188.992 c 409.199
 192.293 408.5 192.691 403.301 193.492 c 400.898 193.793 397.801 194.793
 396.199 195.594 c 392.699 197.395 389.602 197.395 388 195.492 c 387.301
 194.691 386.398 193.992 385.898 193.992 c 385.398 193.992 382.801 192.395
 380.102 190.492 c 377.5 188.594 374.398 186.992 373.301 186.992 c 371 186.992
 359 195.492 359 197.191 c 359 197.793 360.898 202.094 363.199 206.691 c
 367.398 214.992 l 364 221.594 l 362.102 225.191 359.801 228.691 359 229.395
 c 356.699 231.395 351.199 232.992 346.801 232.992 c 344.699 232.992 341.398
 233.691 339.5 234.395 c 336.102 235.895 336 235.992 335.801 241.895 c 335.699
 245.293 335.602 248.793 335.602 249.691 c 335.5 251.895 340.5 254.395 348.199
 255.992 c 354.898 257.492 356.199 258.793 358 265.492 c 358.699 268.191
 359.898 271.395 360.699 272.492 c 362.301 274.895 362.301 275.492 360.699
 277.191 c 360 277.895 357.301 281.594 354.602 285.293 c 349.898 292.094
 349.801 292.094 351.602 294.793 c 353.5 297.895 361 304.992 362.301 304.992
 c 362.699 304.992 365.102 304.094 367.602 302.992 c 370 301.895 374.102
 300.094 376.602 298.895 c 381.199 296.895 l 388.301 300.293 l 392.301 302.191
 396.199 303.992 397.102 304.293 c 398.199 304.691 399.199 307.691 400.5
 314.895 c 402.398 324.895 l 406.398 325.492 l 408.699 325.895 413.199 325.992
 416.398 325.793 c 422.301 325.492 422.398 325.492 423.301 321.992 c 423.801
 320.094 424.5 317.992 424.898 317.492 c 425.301 316.895 426.398 314.395
 427.398 311.691 c 428.5 308.793 429.801 306.992 430.801 306.992 c 432.398
 306.992 436.398 305.793 443.199 303.395 c 447.699 301.793 449 302.191 458.398
 308.395 c 462.199 310.895 465.699 312.992 466.199 312.992 c 467.5 312.992
 474.199 308.492 477.699 305.191 c 481 302.094 l 478.102 296.094 l 476.602
 292.793 474.5 288.793 473.5 287.293 c 471.801 284.691 471.801 284.492 473.5
 281.594 c 474.5 279.895 476.398 276.492 477.699 273.992 c 479 271.594 480.801
 269.094 481.699 268.594 c 482.699 268.094 487.199 267.094 491.801 266.395
 c 496.5 265.691 500.801 264.594 501.5 263.793 c 502.199 263.094 503 259.191
 503.301 255.293 c 504 246.895 504.699 247.594 492.5 243.492 c 484.602 240.793
 481.5 238.691 482.398 236.293 c 482.699 235.691 482.102 233.395 481.102
 231.293 c 477.699 224.293 477.699 223.395 480.801 219.793 c 484.398 215.594
 490 207.395 490 206.293 c 490 205.793 487.301 202.793 484.102 199.594 c
 478.102 193.691 l 474.801 195.293 l 473 196.094 469.5 197.594 467 198.594
 c 464.5 199.492 462.102 200.691 461.602 201.191 c 460.301 202.191 455.301
 202.293 454.602 201.191 c 454.301 200.691 451 199.094 447.102 197.492 c
 440.102 194.691 l 438.301 184.895 l 437.199 178.895 436 174.793 435.199
 174.492 c 434.398 174.191 430.102 173.691 425.398 173.395 c 417.801 172.793
 417 172.895 416.398 174.594 c h
380.5 196.492 m 383.5 199.492 383.602 200.992 380.898 204.395 c 378 208.094
 371.699 207.793 368.801 203.895 c 366.898 201.395 366.898 201.094 368.398
 198.191 c 370.898 193.293 376.5 192.492 380.5 196.492 c h
428.699 202.094 m 437 203.191 443.602 205.895 453.5 212.293 c 460.5 216.793
 464.699 222.094 469.801 232.793 c 473.199 239.895 473.5 241.191 473.5 249.492
 c 473.5 257.293 473.102 259.395 470.602 264.992 c 466 275.191 459.699 283.094
 452.5 287.793 c 449 290.094 445.898 291.992 445.602 291.992 c 445.301 291.992
 443.102 292.793 440.699 293.793 c 432.699 297.293 429.301 297.992 419.301
 297.992 c 411.102 297.992 407.801 297.492 401.398 295.395 c 394.398 292.992
 386.5 288.691 382 284.793 c 378.898 282.094 372.199 272.293 369.398 266.492
 c 366.898 261.191 366.602 259.395 366.602 250.492 c 366.5 238.492 368 233.793
 375.301 223.191 c 383.199 211.691 393.898 204.793 407.5 202.395 c 416.699
 200.793 419.301 200.793 428.699 202.094 c h
428.699 202.094 m f
410.301 234.094 m 401.398 238.191 397.801 247.992 401.898 257.191 c 403.5
 260.992 404.801 262.395 408.898 264.492 c 422.602 271.395 439 262.992 439
 249.094 c 439 245.992 436.301 240.594 433.301 237.895 c 427.102 232.191
 417.801 230.594 410.301 234.094 c h
410.301 234.094 m f
508 185.395 m 508 197.992 l 510.801 197.992 l 513.5 197.992 513.602 197.793
 513.398 192.992 c 513.301 188.492 513.5 187.992 515.5 187.992 c 517 187.992
 518.699 189.492 521.102 192.992 c 523.801 196.992 525.102 197.992 527.301
 197.992 c 528.801 197.992 530 197.691 530 197.293 c 530 196.395 524.801
 188.691 523.5 187.793 c 522.5 187.094 522.5 187.094 525.5 185.395 c 528.199
 183.895 528.801 176.895 526.5 174.992 c 525.5 174.191 521.398 173.492 516.398
 173.191 c 508 172.691 l h
522.699 179.594 m 523.5 181.691 521.301 182.992 517 182.992 c 514 182.992
 513.5 182.691 513.398 180.492 c 513.199 178.191 513.5 177.992 517.602 177.992
 c 520.801 177.992 522.199 178.492 522.699 179.594 c h
522.699 179.594 m f
604.602 184.594 m 602.102 190.992 600 196.594 600 197.094 c 600 197.594
 601.102 197.992 602.602 197.992 c 604.5 197.992 605.398 197.293 606.199
 194.895 c 607.199 192.094 607.5 191.895 611.801 192.191 c 615.801 192.492
 616.5 192.793 617 194.992 c 617.398 196.793 618.301 197.594 620.301 197.793
 c 621.801 197.992 623 197.793 623 197.293 c 623 196.793 621.199 191.293
 619 184.992 c 616.801 178.691 615 173.395 615 173.293 c 615 173.094 613.699
 172.992 612.102 172.992 c 609.398 172.992 609 173.492 604.602 184.594 c
 h
613 182.395 m 613 183.793 613.5 185.191 614 185.492 c 615.699 186.492 614.102
 187.992 611.301 187.992 c 609.398 187.992 608.898 187.594 609.398 186.395
 c 609.699 185.492 610.301 183.691 610.602 182.395 c 611.398 179.293 613
 179.293 613 182.395 c h
613 182.395 m f
534.102 182.691 m 531.102 186.492 530.602 189.293 532.398 192.895 c 536.898
 201.492 549 198.793 549 189.191 c 549 183.293 546 179.992 540.5 179.992
 c 537 179.992 535.699 180.492 534.102 182.691 c h
543.5 188.395 m 543.5 192.992 541.199 195.191 538.602 193.094 c 536.699
 191.492 536.5 186.895 538.199 185.191 c 538.898 184.492 540.398 184.094
 541.5 184.191 c 543.102 184.395 543.5 185.293 543.5 188.395 c h
543.5 188.395 m f
553 186.191 m 553 189.691 553.301 193.492 553.602 194.594 c 554.301 197.293
 558.5 199.293 560.801 198.094 c 561.699 197.594 564 197.492 565.801 197.691
 c 569 198.191 l 569 189.094 l 569 180.094 569 179.992 566.5 179.992 c 564.199
 179.992 564 180.293 564 185.094 c 564 190.594 562.699 193.992 560.602 193.992
 c 558.699 193.992 558 191.691 558 185.395 c 558 180.293 557.898 179.992
 555.5 179.992 c 553.102 179.992 553 180.191 553 186.191 c h
553 186.191 m f
574.199 182.293 m 571.102 185.594 571.199 191.992 574.301 195.594 c 576.199
 197.793 577.5 198.293 580.5 198.191 c 584.301 197.992 589.5 194.594 588.398
 192.895 c 587.602 191.594 583 191.793 583 193.094 c 583 193.691 581.801
 193.992 580.301 193.793 c 578.602 193.594 577.5 192.895 577.5 191.992 c
 577.5 190.895 578.898 190.395 583.301 190.191 c 588.5 189.895 589 189.691
 589 187.594 c 589 181.094 578.699 177.492 574.199 182.293 c h
583 184.395 m 583 184.594 583.301 185.492 583.602 186.395 c 584.102 187.691
 583.5 187.992 580.602 187.992 c 576.801 187.992 576.199 187.191 578.199
 185.191 c 579.301 184.094 583 183.492 583 184.395 c h
583 184.395 m f
Q Q
showpage
%%Trailer
end
%%EOF
